REVIEW THE DEVICES LIST AND SELECT THE APPROPIRIATE VALUE FROM THE
CORRESPONDING SecureDeviceID Tag, DEPENDING ON YOUR DEVICE MODEL,
REQUIRED HARDWARE CAPABILITIES AND PAYMENT PROCESSOR.

FOR EXAMPLE, FOR THESE KNOWN VALUES:
* DEVICE BRAND / MODEL YOU WOULD BE USING / HAVE ALREADY INSTALLED IS: Verifone Vx805
* YOUR PAYMENT PROCESSOR FOR TRANSACTIONS IS: Vantiv
* DEVICE has a USB Cable / Rs232 cable for connection to the computer

THEN YOU SHOULD HAVE SCROLLED THE DEVICE LIST AND TAKEN THE VALUE FOR
SecureDevice10 > SecureDeviceID10 > "EMV_VX805_VANTIV"
THIS IS THE VALUE YOU NEED TO SET FOR THIS PARAMETER.
DEVICE INFO THAT MATCHES YOUR EXAMPLE KNOWN VALUES (HOW IT LOOKS):

  <SecureDevice10>
    <Description10>Verifone Vx805 XPI - Vantiv</Description10>
    <Interface10>RS-232 or USB/VCom</Interface10>
    <SecureDeviceID10>EMV_VX805_VANTIV</SecureDeviceID10>
  </SecureDevice10>

IF UNSURE CONTACT TECHNICAL SUPPORT.

THE DEVICE LIST:

<Devices>
  <NumSecureDevices>113</NumSecureDevices>
  <SecureDevice1>
    <Description1>Verifone Vx805 XPI - Mercury</Description1>
    <Interface1>RS-232 or USB/VCom</Interface1>
    <SecureDeviceID1>EMV_VX805_MERCURY</SecureDeviceID1>
  </SecureDevice1>
  <SecureDevice2>
    <Description2>Verifone Vx805 XPI - Paymentech</Description2>
    <Interface2>RS-232 or USB/VCom</Interface2>
    <SecureDeviceID2>EMV_VX805_PAYMENTECH</SecureDeviceID2>
  </SecureDevice2>
  <SecureDevice3>
    <Description3>Ingenico iSC250 - Paymentech</Description3>
    <Interface3>RS-232 or USB/VCom</Interface3>
    <SecureDeviceID3>EMV_ISC250_PAYMENTECH</SecureDeviceID3>
  </SecureDevice3>
  <SecureDevice4>
    <Description4>Ingenico iPP350 - Paymentech</Description4>
    <Interface4>RS-232 or USB/VCom</Interface4>
    <SecureDeviceID4>EMV_IPP350_PAYMENTECH</SecureDeviceID4>
  </SecureDevice4>
  <SecureDevice5>
    <Description5>Ingenico iPP320 - Paymentech</Description5>
    <Interface5>RS-232 or USB/VCom</Interface5>
    <SecureDeviceID5>EMV_IPP320_PAYMENTECH</SecureDeviceID5>
  </SecureDevice5>
  <SecureDevice6>
    <Description6>Ingenico iCMP - Paymentech</Description6>
    <Interface6>BlueTooth/VCom</Interface6>
    <SecureDeviceID6>EMV_ICMP_PAYMENTECH</SecureDeviceID6>
  </SecureDevice6>
  <SecureDevice7>
    <Description7>Ingenico iSC480 - Paymentech</Description7>
    <Interface7>RS-232 or USB/VCom</Interface7>
    <SecureDeviceID7>EMV_ISC480_PAYMENTECH</SecureDeviceID7>
  </SecureDevice7>
  <SecureDevice8>
    <Description8>Equinox L5300 - Paymentech</Description8>
    <Interface8>RS-232 or USB/VCom</Interface8>
    <SecureDeviceID8>EMV_L5300_PAYMENTECH</SecureDeviceID8>
  </SecureDevice8>
  <SecureDevice9>
    <Description9>Equinox L5200 - Paymentech</Description9>
    <Interface9>RS-232 or USB/VCom</Interface9>
    <SecureDeviceID9>EMV_L5200_PAYMENTECH</SecureDeviceID9>
  </SecureDevice9>
  <SecureDevice10>
    <Description10>Verifone Vx805 XPI - Vantiv</Description10>
    <Interface10>RS-232 or USB/VCom</Interface10>
    <SecureDeviceID10>EMV_VX805_VANTIV</SecureDeviceID10>
  </SecureDevice10>
  <SecureDevice11>
    <Description11>Ingenico iSC250 - Vantiv</Description11>
    <Interface11>RS-232 or USB/VCom</Interface11>
    <SecureDeviceID11>EMV_ISC250_VANTIV</SecureDeviceID11>
  </SecureDevice11>
  <SecureDevice12>
    <Description12>Ingenico iPP350 - Vantiv</Description12>
    <Interface12>RS-232 or USB/VCom</Interface12>
    <SecureDeviceID12>EMV_IPP350_VANTIV</SecureDeviceID12>
  </SecureDevice12>
  <SecureDevice13>
    <Description13>Ingenico iPP320 - Vantiv</Description13>
    <Interface13>RS-232 or USB/VCom</Interface13>
    <SecureDeviceID13>EMV_IPP320_VANTIV</SecureDeviceID13>
  </SecureDevice13>
  <SecureDevice14>
    <Description14>Ingenico iCMP - Vantiv</Description14>
    <Interface14>BlueTooth/VCom</Interface14>
    <SecureDeviceID14>EMV_ICMP_VANTIV</SecureDeviceID14>
  </SecureDevice14>
  <SecureDevice15>
    <Description15>Ingenico iSC480 - Vantiv</Description15>
    <Interface15>RS-232 or USB/VCom</Interface15>
    <SecureDeviceID15>EMV_ISC480_VANTIV</SecureDeviceID15>
  </SecureDevice15>
  <SecureDevice16>
    <Description16>Ingenico iSC250 - Vantiv E2E</Description16>
    <Interface16>RS-232 or USB/VCom</Interface16>
    <SecureDeviceID16>EMV_ISC250_VANTIV_E2E</SecureDeviceID16>
  </SecureDevice16>
  <SecureDevice17>
    <Description17>Ingenico iPP350 - Vantiv E2E</Description17>
    <Interface17>RS-232 or USB/VCom</Interface17>
    <SecureDeviceID17>EMV_IPP350_VANTIV_E2E</SecureDeviceID17>
  </SecureDevice17>
  <SecureDevice18>
    <Description18>Ingenico iPP320 - Vantiv E2E</Description18>
    <Interface18>RS-232 or USB/VCom</Interface18>
    <SecureDeviceID18>EMV_IPP320_VANTIV_E2E</SecureDeviceID18>
  </SecureDevice18>
  <SecureDevice19>
    <Description19>Ingenico iCMP - Vantiv E2E</Description19>
    <Interface19>BlueTooth/VCom</Interface19>
    <SecureDeviceID19>EMV_ICMP_VANTIV_E2E</SecureDeviceID19>
  </SecureDevice19>
  <SecureDevice20>
    <Description20>Ingenico iSC480 - Vantiv E2E</Description20>
    <Interface20>RS-232 or USB/VCom</Interface20>
    <SecureDeviceID20>EMV_ISC480_VANTIV_E2E</SecureDeviceID20>
  </SecureDevice20>
  <SecureDevice21>
    <Description21>Ingenico iSMP4 - Vantiv E2E</Description21>
    <Interface21>Wifi/VCom</Interface21>
    <SecureDeviceID21>EMV_ISMP4_VANTIV_E2E</SecureDeviceID21>
  </SecureDevice21>
  <SecureDevice22>
    <Description22>Ingenico iWL258 - Vantiv E2E</Description22>
    <Interface22>Wifi/BlueTooth/VCom</Interface22>
    <SecureDeviceID22>EMV_IWL258_VANTIV_E2E</SecureDeviceID22>
  </SecureDevice22>
  <SecureDevice23>
    <Description23>Verifone Vx805 XPI - TSYS</Description23>
    <Interface23>RS-232 or USB/VCom</Interface23>
    <SecureDeviceID23>EMV_VX805_TSYS</SecureDeviceID23>
  </SecureDevice23>
  <SecureDevice24>
    <Description24>Ingenico iSC250 - TSYS</Description24>
    <Interface24>RS-232 or USB/VCom</Interface24>
    <SecureDeviceID24>EMV_ISC250_TSYS</SecureDeviceID24>
  </SecureDevice24>
  <SecureDevice25>
    <Description25>Ingenico iPP350 - TSYS</Description25>
    <Interface25>RS-232 or USB/VCom</Interface25>
    <SecureDeviceID25>EMV_IPP350_TSYS</SecureDeviceID25>
  </SecureDevice25>
  <SecureDevice26>
    <Description26>Ingenico iPP320 - TSYS</Description26>
    <Interface26>RS-232 or USB/VCom</Interface26>
    <SecureDeviceID26>EMV_IPP320_TSYS</SecureDeviceID26>
  </SecureDevice26>
  <SecureDevice27>
    <Description27>Ingenico iCMP - TSYS</Description27>
    <Interface27>BlueTooth/VCom</Interface27>
    <SecureDeviceID27>EMV_ICMP_TSYS</SecureDeviceID27>
  </SecureDevice27>
  <SecureDevice28>
    <Description28>Ingenico iUC285 - TSYS</Description28>
    <Interface28>RS-232 or USB/VCom</Interface28>
    <SecureDeviceID28>EMV_IUC285_TSYS</SecureDeviceID28>
  </SecureDevice28>
  <SecureDevice29>
    <Description29>Ingenico iSC480 - TSYS</Description29>
    <Interface29>RS-232 or USB/VCom</Interface29>
    <SecureDeviceID29>EMV_ISC480_TSYS</SecureDeviceID29>
  </SecureDevice29>
  <SecureDevice30>
    <Description30>Ingenico iUP250 - TSYS</Description30>
    <Interface30>RS-232 or USB/VCom</Interface30>
    <SecureDeviceID30>EMV_IUP250_TSYS</SecureDeviceID30>
  </SecureDevice30>
  <SecureDevice31>
    <Description31>Ingenico iSC250 - TSYS Voltage</Description31>
    <Interface31>RS-232 or USB/VCom</Interface31>
    <SecureDeviceID31>EMV_ISC250_TSYS_VOLT</SecureDeviceID31>
  </SecureDevice31>
  <SecureDevice32>
    <Description32>Ingenico iPP350 - TSYS Voltage</Description32>
    <Interface32>RS-232 or USB/VCom</Interface32>
    <SecureDeviceID32>EMV_IPP350_TSYS_VOLT</SecureDeviceID32>
  </SecureDevice32>
  <SecureDevice33>
    <Description33>Ingenico iPP320 - TSYS Voltage</Description33>
    <Interface33>RS-232 or USB/VCom</Interface33>
    <SecureDeviceID33>EMV_IPP320_TSYS_VOLT</SecureDeviceID33>
  </SecureDevice33>
  <SecureDevice34>
    <Description34>Ingenico iCMP - TSYS Voltage</Description34>
    <Interface34>BlueTooth/VCom</Interface34>
    <SecureDeviceID34>EMV_ICMP_TSYS_VOLT</SecureDeviceID34>
  </SecureDevice34>
  <SecureDevice35>
    <Description35>Ingenico iUC285 - TSYS Voltage</Description35>
    <Interface35>RS-232 or USB/VCom</Interface35>
    <SecureDeviceID35>EMV_IUC285_TSYS_VOLT</SecureDeviceID35>
  </SecureDevice35>
  <SecureDevice36>
    <Description36>Ingenico iSC480 - TSYS Voltage</Description36>
    <Interface36>RS-232 or USB/VCom</Interface36>
    <SecureDeviceID36>EMV_ISC480_TSYS_VOLT</SecureDeviceID36>
  </SecureDevice36>
  <SecureDevice37>
    <Description37>Ingenico iUP250 - TSYS Voltage</Description37>
    <Interface37>RS-232 or USB/VCom</Interface37>
    <SecureDeviceID37>EMV_IUP250_TSYS_VOLT</SecureDeviceID37>
  </SecureDevice37>
  <SecureDevice38>
    <Description38>Ingenico iSMP4 - TSYS Voltage</Description38>
    <Interface38>Wifi/VCom</Interface38>
    <SecureDeviceID38>EMV_ISMP4_TSYS_VOLT</SecureDeviceID38>
  </SecureDevice38>
  <SecureDevice39>
    <Description39>Ingenico iWL258 - TSYS Voltage</Description39>
    <Interface39>Wifi/BlueTooth/VCom</Interface39>
    <SecureDeviceID39>EMV_IWL258_TSYS_VOLT</SecureDeviceID39>
  </SecureDevice39>
  <SecureDevice40>
    <Description40>Verifone Vx805 XPI - WorldPay</Description40>
    <Interface40>RS-232 or USB/VCom</Interface40>
    <SecureDeviceID40>EMV_VX805_WORLDPAY</SecureDeviceID40>
  </SecureDevice40>
  <SecureDevice41>
    <Description41>Verifone Vx805 XPI - FDMS RapidConnect</Description41>
    <Interface41>RS-232 or USB/VCom</Interface41>
    <SecureDeviceID41>EMV_VX805_RAPIDCONNECT</SecureDeviceID41>
  </SecureDevice41>
  <SecureDevice42>
    <Description42>Ingenico iSC250 - FDMS RapidConnect</Description42>
    <Interface42>RS-232 or USB/VCom</Interface42>
    <SecureDeviceID42>EMV_ISC250_RAPIDCONNECT</SecureDeviceID42>
  </SecureDevice42>
  <SecureDevice43>
    <Description43>Ingenico iPP350 - FDMS RapidConnect</Description43>
    <Interface43>RS-232 or USB/VCom</Interface43>
    <SecureDeviceID43>EMV_IPP350_RAPIDCONNECT</SecureDeviceID43>
  </SecureDevice43>
  <SecureDevice44>
    <Description44>Ingenico iPP320 - FDMS RapidConnect</Description44>
    <Interface44>RS-232 or USB/VCom</Interface44>
    <SecureDeviceID44>EMV_IPP320_RAPIDCONNECT</SecureDeviceID44>
  </SecureDevice44>
  <SecureDevice45>
    <Description45>Ingenico iCMP - FDMS RapidConnect</Description45>
    <Interface45>BlueTooth/VCom</Interface45>
    <SecureDeviceID45>EMV_ICMP_RAPIDCONNECT</SecureDeviceID45>
  </SecureDevice45>
  <SecureDevice46>
    <Description46>Ingenico iUC285 - FDMS RapidConnect</Description46>
    <Interface46>RS-232 or USB/VCom</Interface46>
    <SecureDeviceID46>EMV_IUC285_RAPIDCONNECT</SecureDeviceID46>
  </SecureDevice46>
  <SecureDevice47>
    <Description47>Ingenico iSC480 - FDMS RapidConnect</Description47>
    <Interface47>RS-232 or USB/VCom</Interface47>
    <SecureDeviceID47>EMV_ISC480_RAPIDCONNECT</SecureDeviceID47>
  </SecureDevice47>
  <SecureDevice48>
    <Description48>Ingenico iUP250 - FDMS RapidConnect</Description48>
    <Interface48>RS-232 or USB/VCom</Interface48>
    <SecureDeviceID48>EMV_IUP250_RAPIDCONNECT</SecureDeviceID48>
  </SecureDevice48>
  <SecureDevice49>
    <Description49>Ingenico iSC250 - FDMS RapidConnect E2E</Description49>
    <Interface49>RS-232 or USB/VCom</Interface49>
    <SecureDeviceID49>EMV_ISC250_RAPIDCONNECT_E2E</SecureDeviceID49>
  </SecureDevice49>
  <SecureDevice50>
    <Description50>Ingenico iPP350 - FDMS RapidConnect E2E</Description50>
    <Interface50>RS-232 or USB/VCom</Interface50>
    <SecureDeviceID50>EMV_IPP350_RAPIDCONNECT_E2E</SecureDeviceID50>
  </SecureDevice50>
  <SecureDevice51>
    <Description51>Ingenico iPP320 - FDMS RapidConnect E2E</Description51>
    <Interface51>RS-232 or USB/VCom</Interface51>
    <SecureDeviceID51>EMV_IPP320_RAPIDCONNECT_E2E</SecureDeviceID51>
  </SecureDevice51>
  <SecureDevice52>
    <Description52>Ingenico iCMP   - FDMS RapidConnect E2E</Description52>
    <Interface52>RS-232 or USB/VCom</Interface52>
    <SecureDeviceID52>EMV_ICMP_RAPIDCONNECT_E2E</SecureDeviceID52>
  </SecureDevice52>
  <SecureDevice53>
    <Description53>Ingenico iUC285 - FDMS RapidConnect E2E</Description53>
    <Interface53>RS-232 or USB/VCom</Interface53>
    <SecureDeviceID53>EMV_IUC285_RAPIDCONNECT_E2E</SecureDeviceID53>
  </SecureDevice53>
  <SecureDevice54>
    <Description54>Ingenico iSC480 - FDMS RapidConnect E2E</Description54>
    <Interface54>RS-232 or USB/VCom</Interface54>
    <SecureDeviceID54>EMV_ISC480_RAPIDCONNECT_E2E</SecureDeviceID54>
  </SecureDevice54>
  <SecureDevice55>
    <Description55>Ingenico iUP250 - FDMS RapidConnect E2E</Description55>
    <Interface55>RS-232 or USB/VCom</Interface55>
    <SecureDeviceID55>EMV_IUP250_RAPIDCONNECT_E2E</SecureDeviceID55>
  </SecureDevice55>
  <SecureDevice56>
    <Description56>Ingenico iSMP4 - FDMS RapidConnect E2E</Description56>
    <Interface56>Wifi/VCom</Interface56>
    <SecureDeviceID56>EMV_ISMP4_RAPIDCONNECT_E2E</SecureDeviceID56>
  </SecureDevice56>
  <SecureDevice57>
    <Description57>Ingenico iWL258 - FDMS RapidConnect E2E</Description57>
    <Interface57>Wifi/BlueTooth/VCom</Interface57>
    <SecureDeviceID57>EMV_IWL258_RAPIDCONNECT_E2E</SecureDeviceID57>
  </SecureDevice57>
  <SecureDevice58>
    <Description58>Verifone Vx805 XPI - Elavon</Description58>
    <Interface58>RS-232 or USB/VCom</Interface58>
    <SecureDeviceID58>EMV_VX805_ELAVON</SecureDeviceID58>
  </SecureDevice58>
  <SecureDevice59>
    <Description59>Verifone Vx805 XPI - Global</Description59>
    <Interface59>RS-232 or USB/VCom</Interface59>
    <SecureDeviceID59>EMV_VX805_GLOBALPAY</SecureDeviceID59>
  </SecureDevice59>
  <SecureDevice60>
    <Description60>Verifone Vx820 XPI - Global</Description60>
    <Interface60>RS-232 or USB/VCom</Interface60>
    <SecureDeviceID60>EMV_VX820_GLOBALPAY</SecureDeviceID60>
  </SecureDevice60>
  <SecureDevice61>
    <Description61>Ingenico iSC250 - GlobalPay</Description61>
    <Interface61>RS-232 or USB/VCom</Interface61>
    <SecureDeviceID61>EMV_ISC250_GLOBALPAY</SecureDeviceID61>
  </SecureDevice61>
  <SecureDevice62>
    <Description62>Ingenico iPP350 - GlobalPay</Description62>
    <Interface62>RS-232 or USB/VCom</Interface62>
    <SecureDeviceID62>EMV_IPP350_GLOBALPAY</SecureDeviceID62>
  </SecureDevice62>
  <SecureDevice63>
    <Description63>Ingenico iPP320 - GlobalPay</Description63>
    <Interface63>RS-232 or USB/VCom</Interface63>
    <SecureDeviceID63>EMV_IPP320_GLOBALPAY</SecureDeviceID63>
  </SecureDevice63>
  <SecureDevice64>
    <Description64>Ingenico iCMP - GlobalPay</Description64>
    <Interface64>BlueTooth/VCom</Interface64>
    <SecureDeviceID64>EMV_ICMP_GLOBALPAY</SecureDeviceID64>
  </SecureDevice64>
  <SecureDevice65>
    <Description65>Ingenico iSC480 - GlobalPay</Description65>
    <Interface65>BlueTooth/VCom</Interface65>
    <SecureDeviceID65>EMV_ISC480_GLOBALPAY</SecureDeviceID65>
  </SecureDevice65>
  <SecureDevice66>
    <Description66>Ingenico iSC250 - Mercury</Description66>
    <Interface66>RS-232 or USB/VCom</Interface66>
    <SecureDeviceID66>EMV_ISC250_MERCURY</SecureDeviceID66>
  </SecureDevice66>
  <SecureDevice67>
    <Description67>Ingenico iSC250 - Heartland</Description67>
    <Interface67>RS-232 or USB/VCom</Interface67>
    <SecureDeviceID67>EMV_ISC250_HEARTLAND</SecureDeviceID67>
  </SecureDevice67>
  <SecureDevice68>
    <Description68>Ingenico iPP350 - Heartland</Description68>
    <Interface68>RS-232 or USB/VCom</Interface68>
    <SecureDeviceID68>EMV_IPP350_HEARTLAND</SecureDeviceID68>
  </SecureDevice68>
  <SecureDevice69>
    <Description69>Ingenico iPP320 - Heartland</Description69>
    <Interface69>RS-232 or USB/VCom</Interface69>
    <SecureDeviceID69>EMV_IPP320_HEARTLAND</SecureDeviceID69>
  </SecureDevice69>
  <SecureDevice70>
    <Description70>Ingenico iCMP - Heartland</Description70>
    <Interface70>BlueTooth/VCom</Interface70>
    <SecureDeviceID70>EMV_ICMP_HEARTLAND</SecureDeviceID70>
  </SecureDevice70>
  <SecureDevice71>
    <Description71>Ingenico iSC480 - Heartland</Description71>
    <Interface71>RS-232 or USB/VCom</Interface71>
    <SecureDeviceID71>EMV_ISC480_HEARTLAND</SecureDeviceID71>
  </SecureDevice71>
  <SecureDevice72>
    <Description72>Ingenico iSMP4 - Heartland</Description72>
    <Interface72>BlueTooth/VCom</Interface72>
    <SecureDeviceID72>EMV_ISMP4_HEARTLAND</SecureDeviceID72>
  </SecureDevice72>
  <SecureDevice73>
    <Description73>Ingenico iWL258 - Heartland</Description73>
    <Interface73>RS-232 or USB/VCom</Interface73>
    <SecureDeviceID73>EMV_IWL258_HEARTLAND</SecureDeviceID73>
  </SecureDevice73>
  <SecureDevice74>
    <Description74>Equinox L5300 - Mercury</Description74>
    <Interface74>RS-232 or USB/VCom</Interface74>
    <SecureDeviceID74>EMV_L5300_MERCURY</SecureDeviceID74>
  </SecureDevice74>
  <SecureDevice75>
    <Description75>Equinox L5200 - Mercury</Description75>
    <Interface75>RS-232 or USB/VCom</Interface75>
    <SecureDeviceID75>EMV_L5200_MERCURY</SecureDeviceID75>
  </SecureDevice75>
  <SecureDevice76>
    <Description76>Ingenico iPP350 - Mercury</Description76>
    <Interface76>RS-232 or USB/VCom</Interface76>
    <SecureDeviceID76>EMV_IPP350_MERCURY</SecureDeviceID76>
  </SecureDevice76>
  <SecureDevice77>
    <Description77>Ingenico iPP320 - Mercury</Description77>
    <Interface77>RS-232 or USB/VCom</Interface77>
    <SecureDeviceID77>EMV_IPP320_MERCURY</SecureDeviceID77>
  </SecureDevice77>
  <SecureDevice78>
    <Description78>Ingenico iCMP - Mercury</Description78>
    <Interface78>BlueTooth/VCom</Interface78>
    <SecureDeviceID78>EMV_ICMP_MERCURY</SecureDeviceID78>
  </SecureDevice78>
  <SecureDevice79>
    <Description79>Ingenico iUC285 - Mercury</Description79>
    <Interface79>RS-232 or USB/VCom</Interface79>
    <SecureDeviceID79>EMV_IUC285_MERCURY</SecureDeviceID79>
  </SecureDevice79>
  <SecureDevice80>
    <Description80>Ingenico iSC480 - Mercury</Description80>
    <Interface80>RS-232 or USB/VCom</Interface80>
    <SecureDeviceID80>EMV_ISC480_MERCURY</SecureDeviceID80>
  </SecureDevice80>
  <SecureDevice81>
    <Description81>Ingenico iUP250 - Mercury</Description81>
    <Interface81>RS-232 or USB/VCom</Interface81>
    <SecureDeviceID81>EMV_IUP250_MERCURY</SecureDeviceID81>
  </SecureDevice81>
  <SecureDevice82>
    <Description82>Ingenico iSMP4 - Mercury</Description82>
    <Interface82>Wifi/VCom</Interface82>
    <SecureDeviceID82>EMV_ISMP4_MERCURY</SecureDeviceID82>
  </SecureDevice82>
  <SecureDevice83>
    <Description83>Ingenico iWL258 - Mercury</Description83>
    <Interface83>Wifi/BlueTooth/VCom</Interface83>
    <SecureDeviceID83>EMV_IWL258_MERCURY</SecureDeviceID83>
  </SecureDevice83>
  <SecureDevice84>
    <Description84>Ingenico iSC250 - BluePay</Description84>
    <Interface84>RS-232 or USB/VCom</Interface84>
    <SecureDeviceID84>EMV_ISC250_BLUEPAY</SecureDeviceID84>
  </SecureDevice84>
  <SecureDevice85>
    <Description85>Ingenico iPP350 - BluePay</Description85>
    <Interface85>RS-232 or USB/VCom</Interface85>
    <SecureDeviceID85>EMV_IPP350_BLUEPAY</SecureDeviceID85>
  </SecureDevice85>
  <SecureDevice86>
    <Description86>Ingenico iPP320 - BluePay</Description86>
    <Interface86>RS-232 or USB/VCom</Interface86>
    <SecureDeviceID86>EMV_IPP320_BLUEPAY</SecureDeviceID86>
  </SecureDevice86>
  <SecureDevice87>
    <Description87>Ingenico iCMP - BluePay</Description87>
    <Interface87>BlueTooth/VCom</Interface87>
    <SecureDeviceID87>EMV_ICMP_BLUEPAY</SecureDeviceID87>
  </SecureDevice87>
  <SecureDevice88>
    <Description88>Ingenico iSC480 - BluePay</Description88>
    <Interface88>BlueTooth/VCom</Interface88>
    <SecureDeviceID88>EMV_ISC480_BLUEPAY</SecureDeviceID88>
  </SecureDevice88>
  <SecureDevice89>
    <Description89>Ingenico iSC250 - BluePay E2E</Description89>
    <Interface89>RS-232 or USB/VCom</Interface89>
    <SecureDeviceID89>EMV_ISC250_BLUEPAY_E2E</SecureDeviceID89>
  </SecureDevice89>
  <SecureDevice90>
    <Description90>Ingenico iPP350 - BluePay E2E</Description90>
    <Interface90>RS-232 or USB/VCom</Interface90>
    <SecureDeviceID90>EMV_IPP350_BLUEPAY_E2E</SecureDeviceID90>
  </SecureDevice90>
  <SecureDevice91>
    <Description91>Ingenico iPP320 - BluePay E2E</Description91>
    <Interface91>RS-232 or USB/VCom</Interface91>
    <SecureDeviceID91>EMV_IPP320_BLUEPAY_E2E</SecureDeviceID91>
  </SecureDevice91>
  <SecureDevice92>
    <Description92>Ingenico iCMP - BluePay E2E</Description92>
    <Interface92>RS-232 or USB/VCom</Interface92>
    <SecureDeviceID92>EMV_ICMP_BLUEPAY_E2E</SecureDeviceID92>
  </SecureDevice92>
  <SecureDevice93>
    <Description93>Ingenico iSC480 - BluePay E2E</Description93>
    <Interface93>RS-232 or USB/VCom</Interface93>
    <SecureDeviceID93>EMV_ISC480_BLUEPAY_E2E</SecureDeviceID93>
  </SecureDevice93>
  <SecureDevice94>
    <Description94>Verifone Vx805 XPI - Monetary</Description94>
    <Interface94>RS-232 or USB/VCom</Interface94>
    <SecureDeviceID94>EMV_VX805_MONETARY</SecureDeviceID94>
  </SecureDevice94>
  <SecureDevice95>
    <Description95>Ingenico iSC250 - Monetary E2E</Description95>
    <Interface95>RS-232 or USB/VCom</Interface95>
    <SecureDeviceID95>EMV_ISC250_MONETARY_E2E</SecureDeviceID95>
  </SecureDevice95>
  <SecureDevice96>
    <Description96>Ingenico iPP350 - Monetary E2E</Description96>
    <Interface96>RS-232 or USB/VCom</Interface96>
    <SecureDeviceID96>EMV_IPP350_MONETARY_E2E</SecureDeviceID96>
  </SecureDevice96>
  <SecureDevice97>
    <Description97>Ingenico iPP320 - Monetary E2E</Description97>
    <Interface97>RS-232 or USB/VCom</Interface97>
    <SecureDeviceID97>EMV_IPP320_MONETARY_E2E</SecureDeviceID97>
  </SecureDevice97>
  <SecureDevice98>
    <Description98>Ingenico iCMP - Monetary E2E</Description98>
    <Interface98>BlueTooth/VCom</Interface98>
    <SecureDeviceID98>EMV_ICMP_MONETARY_E2E</SecureDeviceID98>
  </SecureDevice98>
  <SecureDevice99>
    <Description99>Ingenico iUC285 - Monetary E2E</Description99>
    <Interface99>RS-232 or USB/VCom</Interface99>
    <SecureDeviceID99>EMV_IUC285_MONETARY_E2E</SecureDeviceID99>
  </SecureDevice99>
  <SecureDevice100>
    <Description100>Ingenico iSC480 - Monetary E2E</Description100>
    <Interface100>RS-232 or USB/VCom</Interface100>
    <SecureDeviceID100>EMV_ISC480_MONETARY_E2E</SecureDeviceID100>
  </SecureDevice100>
  <SecureDevice101>
    <Description101>Ingenico iUP250 - Monetary E2E</Description101>
    <Interface101>RS-232 or USB/VCom</Interface101>
    <SecureDeviceID101>EMV_IUP250_MONETARY_E2E</SecureDeviceID101>
  </SecureDevice101>
  <SecureDevice102>
    <Description102>Ingenico iSMP4 - Monetary E2E</Description102>
    <Interface102>Wifi/VCom</Interface102>
    <SecureDeviceID102>EMV_ISMP4_MONETARY_E2E</SecureDeviceID102>
  </SecureDevice102>
  <SecureDevice103>
    <Description103>Ingenico iWL258 - Monetary E2E</Description103>
    <Interface103>Wifi/BlueTooth/VCom</Interface103>
    <SecureDeviceID103>EMV_IWL258_MONETARY_E2E</SecureDeviceID103>
  </SecureDevice103>
  <SecureDevice104>
    <Description104>Ingenico iSC250 - Monetary OnGuard</Description104>
    <Interface104>RS-232 or USB/VCom</Interface104>
    <SecureDeviceID104>EMV_ISC250_MONETARY_ONGUARD</SecureDeviceID104>
  </SecureDevice104>
  <SecureDevice105>
    <Description105>Ingenico iPP320 - Monetary OnGuard</Description105>
    <Interface105>RS-232 or USB/VCom</Interface105>
    <SecureDeviceID105>EMV_IPP320_MONETARY_ONGUARD</SecureDeviceID105>
  </SecureDevice105>
  <SecureDevice106>
    <Description106>Ingenico iUC285 - Monetary OnGuard</Description106>
    <Interface106>RS-232 or USB/VCom</Interface106>
    <SecureDeviceID106>EMV_IUC285_MONETARY_ONGUARD</SecureDeviceID106>
  </SecureDevice106>
  <SecureDevice107>
    <Description107>Ingenico iSMP4 - Monetary OnGuard</Description107>
    <Interface107>Wifi/VCom</Interface107>
    <SecureDeviceID107>EMV_ISMP4_MONETARY_ONGUARD</SecureDeviceID107>
  </SecureDevice107>
  <SecureDevice108>
    <Description108>IDTech Augusta - Mercury</Description108>
    <Interface108>USB/HID</Interface108>
    <SecureDeviceID108>EMV_AUGUSTA_MERCURY</SecureDeviceID108>
  </SecureDevice108>
  <SecureDevice109>
    <Description109>IDTech MiniSmart II - Mercury</Description109>
    <Interface109>USB/HID</Interface109>
    <SecureDeviceID109>EMV_MINISMART_MERCURY</SecureDeviceID109>
  </SecureDevice109>
  <SecureDevice110>
    <Description110>IDTech Augusta - Heartland</Description110>
    <Interface110>USB/HID</Interface110>
    <SecureDeviceID110>EMV_AUGUSTA_HEARTLAND</SecureDeviceID110>
  </SecureDevice110>
  <SecureDevice111>
    <Description111>IDTech MiniSmart II - Heartland</Description111>
    <Interface111>USB/HID</Interface111>
    <SecureDeviceID111>EMV_MINISMART_HEARTLAND</SecureDeviceID111>
  </SecureDevice111>
  <SecureDevice112>
    <Description112>IDTech Augusta - Monetary</Description112>
    <Interface112>USB/HID</Interface112>
    <SecureDeviceID112>EMV_AUGUSTA_MONETARY</SecureDeviceID112>
  </SecureDevice112>
  <SecureDevice113>
    <Description113>IDTech MiniSmart II - Monetary</Description113>
    <Interface113>USB/HID</Interface113>
    <SecureDeviceID113>EMV_MINISMART_MONETARY</SecureDeviceID113>
  </SecureDevice113>
</Devices>